<?xml version="1.0" encoding="utf-8"?>
<!-- Generator: Adobe Illustrator 15.0.0, SVG Export Plug-In . SVG Version: 6.00 Build 0)  -->
<!DOCTYPE svg PUBLIC "-//W3C//DTD SVG 1.1//EN" "http://www.w3.org/Graphics/SVG/1.1/DTD/svg11.dtd">
<svg version="1.1" id="Layer_2_copy" xmlns="http://www.w3.org/2000/svg" xmlns:xlink="http://www.w3.org/1999/xlink" x="0px"
	 y="0px" width="30px" height="30px" viewBox="0 0 30 30" enable-background="new 0 0 30 30" xml:space="preserve">
<path fill="#364A63" d="M23.685,3.594H3.477v0.029H3.469V23.83v2.822H6.29h20.208v-0.029h0.008V6.415V3.594H23.685z M23.685,23.83
	H6.29V6.415h17.395V23.83z"/>
<polygon fill="#364A63" points="19.355,10.297 12.925,16.745 10.248,13.167 8.431,16.188 12.574,21.719 21.078,13.194 "/>
</svg>
