<?xml version="1.0" encoding="utf-8"?>
<!-- Generator: Adobe Illustrator 15.0.0, SVG Export Plug-In . SVG Version: 6.00 Build 0)  -->
<!DOCTYPE svg PUBLIC "-//W3C//DTD SVG 1.1//EN" "http://www.w3.org/Graphics/SVG/1.1/DTD/svg11.dtd">
<svg version="1.1" id="Layer_1" xmlns="http://www.w3.org/2000/svg" xmlns:xlink="http://www.w3.org/1999/xlink" x="0px" y="0px"
	 width="30px" height="30px" viewBox="0 0 30 30" enable-background="new 0 0 30 30" xml:space="preserve">
<g id="Layer_1_1_" display="none">
	<g id="Layer_2" display="inline">
	</g>
</g>
<g id="Layer_5">
	<g>
		<rect x="8.977" y="19.049" fill="#364A63" width="12.084" height="1.957"/>
		<rect x="8.977" y="14.047" fill="#364A63" width="12.084" height="1.958"/>
		<rect x="15.977" y="9.047" fill="#364A63" width="5.084" height="1.958"/>
		<path fill="#364A63" d="M22.514,3.081h-10.49c-1.399,1.384-5.998,5.939-7.996,7.961v12.417c0,1.908,1.552,3.461,3.46,3.461h15.024
			c1.908,0,3.461-1.553,3.461-3.461V6.54C25.973,4.63,24.421,3.081,22.514,3.081z M23.973,23.459c0,0.807-0.654,1.461-1.459,1.461
			H20.43H9.57H7.488c-0.807,0-1.46-0.654-1.46-1.461V11.918h3.36c1.907,0,3.459-1.552,3.459-3.46V5.081h7.582h2.084
			c0.805,0,1.459,0.654,1.459,1.459V23.459z"/>
	</g>
</g>
</svg>
