<?xml version="1.0" encoding="UTF-8"?>
<!DOCTYPE svg PUBLIC "-//W3C//DTD SVG 1.1//EN" "http://www.w3.org/Graphics/SVG/1.1/DTD/svg11.dtd">
<!-- Creator: CorelDRAW X8 -->
<svg xmlns="http://www.w3.org/2000/svg" xml:space="preserve" width="9848px" height="11572px" version="1.1" style="shape-rendering:geometricPrecision; text-rendering:geometricPrecision; image-rendering:optimizeQuality; fill-rule:evenodd; clip-rule:evenodd"
viewBox="0 0 1070 1257"
 xmlns:xlink="http://www.w3.org/1999/xlink">
 <defs>
  <font id="FontID0" horiz-adv-x="632" font-variant="normal" class="str0" style="fill-rule:nonzero" font-weight="400">
	<font-face 
		font-family="Open Sans">
		<font-face-src>
			<font-face-name name="Open Sans"/>
		</font-face-src>
	</font-face>
   <missing-glyph><path d="M0 0z"/></missing-glyph>
   <glyph unicode="2" horiz-adv-x="571" d="M518.333 0l-469.5 0 0 69.8333 188.167 189c57.1667,58.0002 95,99.3335 113.333,124.167 18.1665,24.6668 31.8332,48.8335 40.9999,72.1667 9.00006,23.5001 13.6668,48.6666 13.6668,75.8334 0,37.9999 -11.6667,68.1667 -34.6667,90.4999 -23.1668,22.3334 -55.3335,33.5 -96.3333,33.5 -29.6666,0 -57.6666,-4.8332 -84.1667,-14.6667 -26.6667,-9.66662 -56.1667,-27.4999 -88.6666,-53.1665l-43.0002 55.1666c65.6669,54.5001 137.333,81.6667 214.833,81.6667 67.1666,0 119.667,-17.1667 157.833,-51.5001 38.1666,-34.3332 57.1667,-80.5 57.1667,-138.5 0,-45.1667 -12.6668,-89.9999 -38.1668,-134.333 -25.3334,-44.1667 -72.8332,-100.167 -142.667,-167.833l-156.333 -153 0 -3.83336 367.5 0 0 -75z"/>
  </font>
  <style type="text/css">
   <![CDATA[
    @font-face { font-family:"Open Sans";font-variant:normal;font-weight:normal;src:url("#FontID0") format(svg)}
    .str0 {stroke-width:79.334}
    .str1 {stroke:white;stroke-width:45.26}
    .fil0 {fill:#13A8C0}
    .fil1 {fill:white}
    .fnt0 {font-weight:normal;font-size:570.5px;font-family:'Open Sans'}
   ]]>
  </style>
 </defs>
 <g id="Layer_x0020_1">
  <metadata id="CorelCorpID_0Corel-Layer"/>
  <g id="_1596482274000">
   <g id="_1618235345328">
    <g id="_2264634560480">
     <polygon class="fil0" points="1070,294 521,0 521,0 521,0 521,0 521,0 0,294 0,923 521,1257 521,1257 521,1257 521,1257 521,1257 1070,923 "/>
    </g>
   </g>
  </g>
  <text x="373" y="835"  class="fil1 str1 fnt0">2</text>
 </g>
</svg>
