<?xml version="1.0" encoding="utf-8"?>
<!-- Generator: Adobe Illustrator 15.0.0, SVG Export Plug-In . SVG Version: 6.00 Build 0)  -->
<!DOCTYPE svg PUBLIC "-//W3C//DTD SVG 1.1//EN" "http://www.w3.org/Graphics/SVG/1.1/DTD/svg11.dtd">
<svg version="1.1" id="Layer_1" xmlns="http://www.w3.org/2000/svg" xmlns:xlink="http://www.w3.org/1999/xlink" x="0px" y="0px"
	 width="400px" height="300px" viewBox="15.125 30.029 400 300" enable-background="new 15.125 30.029 400 300"
	 xml:space="preserve">
<g>
	<path fill="#4A689D" d="M84.559,292.693v-11.633h5.205c2.376,0,3.563,1.094,3.563,3.276c0,2.369-1.623,3.806-4.871,4.306
		l-0.311-1.92c1.953-0.354,2.929-1.125,2.929-2.318c0-0.965-0.481-1.447-1.447-1.447h-2.912v9.736H84.559z"/>
	<path fill="#4A689D" d="M94.343,286.895c0-3.939,1.947-5.912,5.84-5.912c3.833,0,5.75,1.973,5.75,5.912
		c0,3.92-1.917,5.881-5.75,5.881C96.463,292.773,94.517,290.814,94.343,286.895z M100.184,290.902c2.343,0,3.514-1.354,3.514-4.059
		c0-2.662-1.171-3.992-3.514-3.992c-2.402,0-3.603,1.33-3.603,3.992C96.581,289.551,97.78,290.902,100.184,290.902z"/>
	<path fill="#4A689D" d="M107.031,281.063h2.188l1.244,8.354l3.025-8.354h2.074l2.83,8.027l1.318-8.027h2.123l-2.188,11.631h-2.049
		l-3.198-9.127l-3.432,9.127h-2.026L107.031,281.063z"/>
	<path fill="#4A689D" d="M131.302,281.063v1.854h-5.823v2.929h5.547v1.928h-5.57v3.052h5.961v1.868h-8.077v-11.631H131.302
		L131.302,281.063z"/>
	<path fill="#4A689D" d="M133.408,292.677v-11.614h5.287c2.375,0,3.563,1.039,3.563,3.115c0,1.405-0.924,2.567-2.773,3.488
		l3.686,5.027h-2.717l-3.538-5.067v-0.983c2.061-0.354,3.09-1.149,3.09-2.397c0-0.854-0.482-1.285-1.447-1.285h-2.953v9.722
		L133.408,292.677L133.408,292.677z"/>
	<path fill="#4A689D" d="M146.341,281.063v11.631h-2.155v-11.631H146.341z"/>
	<path fill="#4A689D" d="M148.781,292.693v-11.633h2.155l6.141,8.478v-8.478h2.073v11.633h-2.153l-6.143-8.654v8.654H148.781z"/>
	<path fill="#4A689D" d="M170.863,292.157c-0.938,0.411-2.11,0.616-3.521,0.616c-4.104,0-6.157-2.021-6.157-6.061
		c0-3.82,2.087-5.732,6.263-5.732c1.274,0,2.412,0.188,3.416,0.566v1.952c-1.004-0.437-2.088-0.647-3.253-0.647
		c-2.793,0-4.188,1.287-4.188,3.861c0,2.792,1.317,4.188,3.953,4.188c0.392,0,0.836-0.063,1.334-0.192v-3.384h2.154L170.863,292.157
		L170.863,292.157z"/>
	<path fill="#4A689D" d="M176.354,292.205v-1.952c1.166,0.435,2.483,0.649,3.952,0.649c1.783,0,2.677-0.596,2.677-1.787
		c0-0.868-0.549-1.303-1.644-1.303h-1.821c-2.382,0-3.571-1.084-3.571-3.254c0-2.388,1.695-3.578,5.084-3.578
		c1.303,0,2.535,0.188,3.701,0.566v1.952c-1.166-0.437-2.398-0.647-3.701-0.647c-1.951,0-2.929,0.567-2.929,1.707
		c0,0.866,0.473,1.303,1.416,1.303h1.821c2.531,0,3.799,1.084,3.799,3.254c0,2.439-1.61,3.658-4.832,3.658
		C178.837,292.773,177.52,292.585,176.354,292.205z"/>
	<path fill="#4A689D" d="M188.163,292.693h-2.212l4.938-11.633h2.316l5.043,11.633h-2.315l-1.326-3.174h-3.86l0.737-1.869h2.342
		l-1.827-4.368L188.163,292.693z"/>
	<path fill="#4A689D" d="M207.31,281.063v1.854h-5.498v2.929h5.222v1.928h-5.245v4.92h-2.115v-11.631H207.31L207.31,281.063z"/>
	<path fill="#4A689D" d="M217.104,281.063v1.854h-5.824v2.929h5.547v1.928h-5.571v3.052h5.964v1.868h-8.076v-11.631H217.104
		L217.104,281.063z"/>
	<path fill="#4A689D" d="M226.814,281.063v1.871h-3.334v9.76h-2.156v-9.76h-3.334v-1.871H226.814z"/>
	<path fill="#4A689D" d="M227.018,281.063h2.318l3.27,5.604l3.074-5.604h2.236l-4.277,7.564v4.066h-2.154v-4.066L227.018,281.063z"
		/>
	<path fill="#4A689D" d="M250.23,281.063v1.854h-5.822v2.929h5.547v1.928h-5.572v3.052h5.963v1.868h-8.074v-11.631H250.23
		L250.23,281.063z"/>
	<path fill="#4A689D" d="M255.9,286.878l-4.58-5.815h2.727l3.213,4.246l3.211-4.246h2.729l-4.568,5.815l4.568,5.815h-2.729
		l-3.211-4.246l-3.213,4.246h-2.727L255.9,286.878z"/>
	<path fill="#4A689D" d="M273.826,292.205c-1.004,0.38-2.141,0.568-3.414,0.568c-4.178,0-6.264-2.021-6.264-6.061
		c0-3.82,2.086-5.732,6.264-5.732c1.273,0,2.41,0.188,3.414,0.566v1.952c-1.004-0.437-2.088-0.647-3.254-0.647
		c-2.791,0-4.188,1.287-4.188,3.861c0,2.792,1.396,4.188,4.188,4.188c1.166,0,2.25-0.215,3.254-0.648V292.205z"/>
	<path fill="#4A689D" d="M283.822,281.063v1.854H278v2.929h5.547v1.928h-5.57v3.052h5.963v1.868h-8.076v-11.631H283.822
		L283.822,281.063z"/>
	<path fill="#4A689D" d="M288.086,281.063v9.763h4.619v1.868h-6.775v-11.631H288.086z"/>
	<path fill="#4A689D" d="M296.893,281.063v9.763h4.621v1.868h-6.775v-11.631H296.893z"/>
	<path fill="#4A689D" d="M311.51,281.063v1.854h-5.824v2.929h5.547v1.928h-5.572v3.052h5.963v1.868h-8.076v-11.631H311.51
		L311.51,281.063z"/>
	<path fill="#4A689D" d="M313.615,292.693v-11.633h2.156l6.141,8.478v-8.478h2.072v11.633h-2.154l-6.141-8.654v8.654H313.615z"/>
	<path fill="#4A689D" d="M335.699,292.205c-1.004,0.38-2.143,0.568-3.416,0.568c-4.178,0-6.264-2.021-6.264-6.061
		c0-3.82,2.086-5.732,6.264-5.732c1.273,0,2.412,0.188,3.416,0.566v1.952c-1.004-0.437-2.088-0.647-3.256-0.647
		c-2.791,0-4.188,1.287-4.188,3.861c0,2.792,1.396,4.188,4.188,4.188c1.168,0,2.252-0.215,3.256-0.648V292.205z"/>
	<path fill="#4A689D" d="M345.693,281.063v1.854h-5.822v2.929h5.547v1.928h-5.568v3.052h5.961v1.868h-8.076v-11.631H345.693
		L345.693,281.063z"/>
	<path fill="#11A9BE" d="M92.063,204.693v55.574h32.478v6.515h-40.51v-62.089H92.063L92.063,204.693z"/>
	<path fill="#11A9BE" d="M139.125,204.693v7.598h-8.032v-7.598H139.125z M139.125,221.191v45.59h-8.032v-45.59H139.125
		L139.125,221.191z"/>
	<path fill="#11A9BE" d="M148.018,213.811h5.036l1.736,7.381h12.332v6.515H156.05v26.183c0,4.254,1.838,6.383,5.515,6.383h5.558
		v6.514h-7.642c-7.642,0-11.463-4.098-11.463-12.287V213.811z"/>
	<path fill="#4A689D" d="M176.24,264.176v-10.42c6.224,2.316,13.257,3.473,21.101,3.473c9.523,0,14.285-3.184,14.285-9.551
		c0-4.631-2.924-6.947-8.771-6.947h-9.726c-12.709,0-19.063-5.789-19.063-17.365c0-12.736,9.045-19.104,27.138-19.104
		c6.945,0,13.53,1.015,19.757,3.04v10.42c-6.227-2.314-12.812-3.474-19.757-3.474c-10.422,0-15.632,3.039-15.632,9.118
		c0,4.632,2.521,6.945,7.558,6.945h9.726c13.518,0,20.277,5.791,20.277,17.369c0,13.024-8.601,19.536-25.792,19.536
		C189.497,267.215,182.462,266.203,176.24,264.176z"/>
	<path fill="#4A689D" d="M228.311,252.584c0-9.061,6.6-13.59,19.799-13.59c3.098,0,6.193,0.289,9.291,0.867v-3.43
		c0-4.082-2.938-6.123-8.813-6.123c-4.979,0-10.508,0.724-16.586,2.17v-9.119c6.078-1.446,11.605-2.17,16.586-2.17
		c13.547,0,20.318,5.008,20.318,15.021v30.564h-6.686l-4.082-4.082c-3.965,2.724-8.336,4.082-13.111,4.082
		C233.883,266.781,228.311,262.049,228.311,252.584z M248.109,246.809c-5.527,0-8.293,1.883-8.293,5.646
		c0,4.053,2.314,6.078,6.947,6.078c3.82,0,7.365-1.188,10.637-3.561v-7.296C254.506,247.1,251.408,246.809,248.109,246.809z"/>
	<path fill="#4A689D" d="M277.094,266.781v-45.59c0-12.504,6.83-18.756,20.494-18.756c3.73,0,7.119,0.58,10.16,1.735v9.118
		c-2.867-1.158-5.98-1.737-9.338-1.737c-6.541,0-9.813,3.214-9.813,9.64h13.676v9.119H288.6v36.471H277.094L277.094,266.781z"/>
	<path fill="#4A689D" d="M325.463,221.191c13.838,0,20.756,7.063,20.756,21.188c0,1.881-0.133,3.765-0.395,5.646h-30.262
		c0,6.428,4.717,9.641,14.154,9.641c4.602,0,9.205-0.438,13.807-1.305v9.117c-4.023,0.869-8.916,1.305-14.676,1.305
		c-16.527,0-24.791-7.771-24.791-23.315C304.057,228.617,311.191,221.191,325.463,221.191z M315.563,240.035h19.451v-0.348
		c0-6.312-3.188-9.465-9.555-9.465C319.383,230.223,316.084,233.494,315.563,240.035z"/>
</g>
<g>
	<polygon fill="#11A9BE" points="242.377,162.167 215.377,177.416 171.877,152.25 171.877,103 180.815,108.75 180.815,147.188 
		215.002,167.5 224.564,162.063 190.627,141.563 190.627,103.188 171.367,91.773 163.002,96.677 163.002,114.792 163.002,139.875 
		163.002,157.99 215.122,188.539 215.122,188.542 215.125,188.541 215.127,188.542 215.127,188.539 251.486,167.229 	"/>
	<polygon fill="#4A689D" points="215.127,66.128 215.127,66.125 215.125,66.126 215.122,66.125 215.122,66.128 178.917,87.35 
		187.71,93.083 205.544,82.667 205.544,112.75 240.877,132.917 250.045,127.75 215.545,107.333 215.545,76.75 258.877,102.083 
		258.877,111.833 234.045,97.5 224.295,102.667 258.627,122.917 258.627,152.333 215.377,127.084 198.127,137.084 207.294,142.833 
		215.21,138.083 258.604,163.057 267.248,157.99 267.248,139.875 267.248,114.792 267.248,96.677 	"/>
</g>
</svg>
