<?xml version="1.0" encoding="UTF-8"?>
<!DOCTYPE svg PUBLIC "-//W3C//DTD SVG 1.1//EN" "http://www.w3.org/Graphics/SVG/1.1/DTD/svg11.dtd">
<!-- Creator: CorelDRAW X8 -->
<svg xmlns="http://www.w3.org/2000/svg" xml:space="preserve" width="9848px" height="11572px" version="1.1" style="shape-rendering:geometricPrecision; text-rendering:geometricPrecision; image-rendering:optimizeQuality; fill-rule:evenodd; clip-rule:evenodd"
viewBox="0 0 2102 2471"
 xmlns:xlink="http://www.w3.org/1999/xlink">
 <defs>
  <font id="FontID0" horiz-adv-x="632" font-variant="normal" class="str0" style="fill-rule:nonzero" font-weight="400">
	<font-face 
		font-family="Open Sans">
		<font-face-src>
			<font-face-name name="Open Sans"/>
		</font-face-src>
	</font-face>
   <missing-glyph><path d="M0 0z"/></missing-glyph>
   <glyph unicode="4" horiz-adv-x="571" d="M552 164l-106 0 0 -164 -77.6667 0 0 164 -347.333 0 0 70.8331 339 483.167 85.9999 0 0 -480 106 0 0 -73.9999zm-183.667 73.9999l0 237.333c0,46.5001 1.66661,99.1666 4.83342,157.667l-3.83336 0c-15.6667,-31.1666 -30.3334,-57.1667 -44,-77.6667l-223.333 -317.333 266.333 0z"/>
  </font>
  <style type="text/css">
   <![CDATA[
    @font-face { font-family:"Open Sans";font-variant:normal;font-weight:normal;src:url("#FontID0") format(svg)}
    .str0 {stroke-width:79.334}
    .str1 {stroke:white;stroke-width:88.9552}
    .fil0 {fill:#4A689E}
    .fil1 {fill:white}
    .fnt0 {font-weight:normal;font-size:1121.28px;font-family:'Open Sans'}
   ]]>
  </style>
 </defs>
 <g id="Layer_x0020_1">
  <metadata id="CorelCorpID_0Corel-Layer"/>
  <g id="_1596482274000">
   <g id="_1618235345328">
    <g id="_2264634560480">
     <polygon class="fil0" points="2102,578 1025,0 1025,0 1025,0 1025,0 1025,0 0,578 0,1813 1025,2471 1025,2471 1025,2471 1025,2471 1025,2471 2102,1813 "/>
    </g>
   </g>
  </g>
  <text x="730" y="1638"  class="fil1 str1 fnt0">4</text>
 </g>
</svg>
